{
  "project_info": {
    "project_number": "983694248601",
    "project_id": "choix-customer-6575d",
    "storage_bucket": "choix-customer-6575d.appspot.com"
  },
  "client": [
    {
      "client_info": {
        "mobilesdk_app_id": "1:983694248601:android:3f9a13fa5c2498c62f4608",
        "android_client_info": {
          "package_name": "com.choix_customer"
        }
      },
      "oauth_client": [
        {
          "client_id": "983694248601-2cnbb1cmtj9ui3i5a2fupm82rijqc2tl.apps.googleusercontent.com",
          "client_type": 1,
          "android_info": {
            "package_name": "com.choix_customer",
            "certificate_hash": "aee43719ab2d2d36067d664a9575073f1c41eb1f"
          }
        },
        {
          "client_id": "983694248601-v1qq8sdajf3ib4rutfj9pn3hb4f8oppv.apps.googleusercontent.com",
          "client_type": 1,
          "android_info": {
            "package_name": "com.choix_customer",
            "certificate_hash": "2685ffe34202344628828ad9e3b3b4ec01500d2a"
          }
        },
        {
          "client_id": "983694248601-gk3547lgqb896lh0rnb9n4qp4svtr21d.apps.googleusercontent.com",
          "client_type": 3
        }
      ],
      "api_key": [
        {
          "current_key": "AIzaSyAN4EPqqdTwBP8nwJAXwjI5A6Rl-D_-GZk"
        }
      ],
      "services": {
        "appinvite_service": {
          "other_platform_oauth_client": [
            {
              "client_id": "983694248601-gk3547lgqb896lh0rnb9n4qp4svtr21d.apps.googleusercontent.com",
              "client_type": 3
            }
          ]
        }
      }
    }
  ],
  "configuration_version": "1"
}